…
```r
# looking at the distinct values for BMI
data %>%
  distinct(PM_BMI_SR)
```

```
## # A tibble: 7,922 × 1
##    PM_BMI_SR
##        <dbl>
##  1      NA  
##  2      28.3
##  3      25.5
##  4      22.5
##  5      44.8
##  6      23.8
##  7      32.8
##  8      35.2
##  9      25.7
## 10      26.6
## # ℹ 7,912 more rows
```
…
